]no header do arquivo
14.0   140,178 = 38+1 = 39, no entanto na quantidade de digitos está especificado 40.

codigo do segmento B
28.B
29.B < ------ nao esta presente.
30.B

28.B descricao "bandera" trocar por "bandeira" (existem outras ocorrências)


questionamento float:
layout do itau, banco do brasil
pagina 25
https://www.febraban.org.br/7Rof7SWg6qmyvwJcFwF7I0aSDf9jyV/sitefebraban/subcpadr16-layout%20padrao%20V%2010%2000%20-%2031.05.pdf
[163, 177] 13, 2  (15)
177-163 = 14 + 1 = 15 (13 inteiros, 2 casas decimais)

no teia
[163, 177] 15, 2 (dos 15 , 2 sao usados para casas decimais)
177-163 = 14 + 1 = 15 ( 13 inteiros, 2 cases decimais)


Estravio ->>> Extravio

numeracao 04.1 - header lote